<mxfile host="Electron" modified="2023-06-05T12:06:50.225Z" agent="Mozilla/5.0 (X11; Linux x86_64) AppleWebKit/537.36 (KHTML, like Gecko) draw.io/21.2.8 Chrome/112.0.5615.165 Electron/24.2.0 Safari/537.36" etag="UTpLcjPi-5bOA8WhXdmH" version="21.2.8" type="device">
  <diagram name="Page-1" id="ZgEUCu97vCsvLgyVy6hc">
    <mxGraphModel dx="1968" dy="2938" grid="1" gridSize="10" guides="1" tooltips="1" connect="1" arrows="1" fold="1" page="1" pageScale="1" pageWidth="850" pageHeight="1100" math="0" shadow="0">
      <root>
        <mxCell id="0" />
        <mxCell id="1" parent="0" />
        <mxCell id="fyUvw5QtPV9Wiu8gB0H8-17" value="Population" style="swimlane;fontStyle=1;align=center;verticalAlign=top;childLayout=stackLayout;horizontal=1;startSize=26;horizontalStack=0;resizeParent=1;resizeParentMax=0;resizeLast=0;collapsible=1;marginBottom=0;whiteSpace=wrap;html=1;" parent="1" vertex="1">
          <mxGeometry x="-800" y="340" width="250" height="270" as="geometry" />
        </mxCell>
        <mxCell id="6sdkXRkWTDobi1n3qOID-8" value="+ population_index: int" style="text;strokeColor=none;fillColor=none;align=left;verticalAlign=top;spacingLeft=4;spacingRight=4;overflow=hidden;rotatable=0;points=[[0,0.5],[1,0.5]];portConstraint=eastwest;whiteSpace=wrap;html=1;" parent="fyUvw5QtPV9Wiu8gB0H8-17" vertex="1">
          <mxGeometry y="26" width="250" height="26" as="geometry" />
        </mxCell>
        <mxCell id="fyUvw5QtPV9Wiu8gB0H8-18" value="+ population_name: string" style="text;strokeColor=none;fillColor=none;align=left;verticalAlign=top;spacingLeft=4;spacingRight=4;overflow=hidden;rotatable=0;points=[[0,0.5],[1,0.5]];portConstraint=eastwest;whiteSpace=wrap;html=1;" parent="fyUvw5QtPV9Wiu8gB0H8-17" vertex="1">
          <mxGeometry y="52" width="250" height="26" as="geometry" />
        </mxCell>
        <mxCell id="6sdkXRkWTDobi1n3qOID-33" value="+ epoch_counter: int" style="text;strokeColor=none;fillColor=none;align=left;verticalAlign=top;spacingLeft=4;spacingRight=4;overflow=hidden;rotatable=0;points=[[0,0.5],[1,0.5]];portConstraint=eastwest;whiteSpace=wrap;html=1;" parent="fyUvw5QtPV9Wiu8gB0H8-17" vertex="1">
          <mxGeometry y="78" width="250" height="26" as="geometry" />
        </mxCell>
        <mxCell id="YBbd6qHGsjDS6U28tkjz-100" value="+ individuals: array" style="text;strokeColor=none;fillColor=none;align=left;verticalAlign=top;spacingLeft=4;spacingRight=4;overflow=hidden;rotatable=0;points=[[0,0.5],[1,0.5]];portConstraint=eastwest;whiteSpace=wrap;html=1;" parent="fyUvw5QtPV9Wiu8gB0H8-17" vertex="1">
          <mxGeometry y="104" width="250" height="26" as="geometry" />
        </mxCell>
        <mxCell id="YBbd6qHGsjDS6U28tkjz-29" value="+ operator: operator" style="text;strokeColor=none;fillColor=none;align=left;verticalAlign=top;spacingLeft=4;spacingRight=4;overflow=hidden;rotatable=0;points=[[0,0.5],[1,0.5]];portConstraint=eastwest;whiteSpace=wrap;html=1;" parent="fyUvw5QtPV9Wiu8gB0H8-17" vertex="1">
          <mxGeometry y="130" width="250" height="26" as="geometry" />
        </mxCell>
        <mxCell id="YBbd6qHGsjDS6U28tkjz-90" value="+ mean_individual_fitness: float" style="text;strokeColor=none;fillColor=none;align=left;verticalAlign=top;spacingLeft=4;spacingRight=4;overflow=hidden;rotatable=0;points=[[0,0.5],[1,0.5]];portConstraint=eastwest;whiteSpace=wrap;html=1;" parent="fyUvw5QtPV9Wiu8gB0H8-17" vertex="1">
          <mxGeometry y="156" width="250" height="26" as="geometry" />
        </mxCell>
        <mxCell id="fyUvw5QtPV9Wiu8gB0H8-19" value="" style="line;strokeWidth=1;fillColor=none;align=left;verticalAlign=middle;spacingTop=-1;spacingLeft=3;spacingRight=3;rotatable=0;labelPosition=right;points=[];portConstraint=eastwest;strokeColor=inherit;" parent="fyUvw5QtPV9Wiu8gB0H8-17" vertex="1">
          <mxGeometry y="182" width="250" height="8" as="geometry" />
        </mxCell>
        <mxCell id="YBbd6qHGsjDS6U28tkjz-64" value="+ instantiate_individuals()" style="text;strokeColor=none;fillColor=none;align=left;verticalAlign=top;spacingLeft=4;spacingRight=4;overflow=hidden;rotatable=0;points=[[0,0.5],[1,0.5]];portConstraint=eastwest;whiteSpace=wrap;html=1;" parent="fyUvw5QtPV9Wiu8gB0H8-17" vertex="1">
          <mxGeometry y="190" width="250" height="28" as="geometry" />
        </mxCell>
        <mxCell id="fyUvw5QtPV9Wiu8gB0H8-20" value="+ recombine(operator(g_0, g_1))" style="text;strokeColor=none;fillColor=none;align=left;verticalAlign=top;spacingLeft=4;spacingRight=4;overflow=hidden;rotatable=0;points=[[0,0.5],[1,0.5]];portConstraint=eastwest;whiteSpace=wrap;html=1;" parent="fyUvw5QtPV9Wiu8gB0H8-17" vertex="1">
          <mxGeometry y="218" width="250" height="26" as="geometry" />
        </mxCell>
        <mxCell id="2305VUciKoEtOX_F4iJQ-8" value="+ apply_operator(operator)" style="text;strokeColor=none;fillColor=none;align=left;verticalAlign=top;spacingLeft=4;spacingRight=4;overflow=hidden;rotatable=0;points=[[0,0.5],[1,0.5]];portConstraint=eastwest;whiteSpace=wrap;html=1;" parent="fyUvw5QtPV9Wiu8gB0H8-17" vertex="1">
          <mxGeometry y="244" width="250" height="26" as="geometry" />
        </mxCell>
        <mxCell id="fyUvw5QtPV9Wiu8gB0H8-21" value="Individual" style="swimlane;fontStyle=1;align=center;verticalAlign=top;childLayout=stackLayout;horizontal=1;startSize=26;horizontalStack=0;resizeParent=1;resizeParentMax=0;resizeLast=0;collapsible=1;marginBottom=0;whiteSpace=wrap;html=1;" parent="1" vertex="1">
          <mxGeometry x="-60" y="164" width="160" height="138" as="geometry" />
        </mxCell>
        <mxCell id="fyUvw5QtPV9Wiu8gB0H8-22" value="+ gene: array " style="text;strokeColor=none;fillColor=none;align=left;verticalAlign=top;spacingLeft=4;spacingRight=4;overflow=hidden;rotatable=0;points=[[0,0.5],[1,0.5]];portConstraint=eastwest;whiteSpace=wrap;html=1;" parent="fyUvw5QtPV9Wiu8gB0H8-21" vertex="1">
          <mxGeometry y="26" width="160" height="26" as="geometry" />
        </mxCell>
        <mxCell id="fyUvw5QtPV9Wiu8gB0H8-25" value="+ fitness: float" style="text;strokeColor=none;fillColor=none;align=left;verticalAlign=top;spacingLeft=4;spacingRight=4;overflow=hidden;rotatable=0;points=[[0,0.5],[1,0.5]];portConstraint=eastwest;whiteSpace=wrap;html=1;" parent="fyUvw5QtPV9Wiu8gB0H8-21" vertex="1">
          <mxGeometry y="52" width="160" height="26" as="geometry" />
        </mxCell>
        <mxCell id="YBbd6qHGsjDS6U28tkjz-99" value="+ population: population" style="text;strokeColor=none;fillColor=none;align=left;verticalAlign=top;spacingLeft=4;spacingRight=4;overflow=hidden;rotatable=0;points=[[0,0.5],[1,0.5]];portConstraint=eastwest;whiteSpace=wrap;html=1;" parent="fyUvw5QtPV9Wiu8gB0H8-21" vertex="1">
          <mxGeometry y="78" width="160" height="26" as="geometry" />
        </mxCell>
        <mxCell id="fyUvw5QtPV9Wiu8gB0H8-23" value="" style="line;strokeWidth=1;fillColor=none;align=left;verticalAlign=middle;spacingTop=-1;spacingLeft=3;spacingRight=3;rotatable=0;labelPosition=right;points=[];portConstraint=eastwest;strokeColor=inherit;" parent="fyUvw5QtPV9Wiu8gB0H8-21" vertex="1">
          <mxGeometry y="104" width="160" height="8" as="geometry" />
        </mxCell>
        <mxCell id="fyUvw5QtPV9Wiu8gB0H8-24" value="+ method(type): type" style="text;strokeColor=none;fillColor=none;align=left;verticalAlign=top;spacingLeft=4;spacingRight=4;overflow=hidden;rotatable=0;points=[[0,0.5],[1,0.5]];portConstraint=eastwest;whiteSpace=wrap;html=1;" parent="fyUvw5QtPV9Wiu8gB0H8-21" vertex="1">
          <mxGeometry y="112" width="160" height="26" as="geometry" />
        </mxCell>
        <mxCell id="fyUvw5QtPV9Wiu8gB0H8-26" value="World_controller" style="swimlane;fontStyle=1;align=center;verticalAlign=top;childLayout=stackLayout;horizontal=1;startSize=26;horizontalStack=0;resizeParent=1;resizeParentMax=0;resizeLast=0;collapsible=1;marginBottom=0;whiteSpace=wrap;html=1;" parent="1" vertex="1">
          <mxGeometry x="-445" width="330" height="112" as="geometry" />
        </mxCell>
        <mxCell id="fyUvw5QtPV9Wiu8gB0H8-27" value="+ populations: array(Populatoon" style="text;strokeColor=none;fillColor=none;align=left;verticalAlign=top;spacingLeft=4;spacingRight=4;overflow=hidden;rotatable=0;points=[[0,0.5],[1,0.5]];portConstraint=eastwest;whiteSpace=wrap;html=1;" parent="fyUvw5QtPV9Wiu8gB0H8-26" vertex="1">
          <mxGeometry y="26" width="330" height="26" as="geometry" />
        </mxCell>
        <mxCell id="YBbd6qHGsjDS6U28tkjz-51" value="+ epoch: int" style="text;strokeColor=none;fillColor=none;align=left;verticalAlign=top;spacingLeft=4;spacingRight=4;overflow=hidden;rotatable=0;points=[[0,0.5],[1,0.5]];portConstraint=eastwest;whiteSpace=wrap;html=1;" parent="fyUvw5QtPV9Wiu8gB0H8-26" vertex="1">
          <mxGeometry y="52" width="330" height="26" as="geometry" />
        </mxCell>
        <mxCell id="fyUvw5QtPV9Wiu8gB0H8-28" value="" style="line;strokeWidth=1;fillColor=none;align=left;verticalAlign=middle;spacingTop=-1;spacingLeft=3;spacingRight=3;rotatable=0;labelPosition=right;points=[];portConstraint=eastwest;strokeColor=inherit;" parent="fyUvw5QtPV9Wiu8gB0H8-26" vertex="1">
          <mxGeometry y="78" width="330" height="8" as="geometry" />
        </mxCell>
        <mxCell id="fyUvw5QtPV9Wiu8gB0H8-29" value="+ epoch()&amp;nbsp;" style="text;strokeColor=none;fillColor=none;align=left;verticalAlign=top;spacingLeft=4;spacingRight=4;overflow=hidden;rotatable=0;points=[[0,0.5],[1,0.5]];portConstraint=eastwest;whiteSpace=wrap;html=1;" parent="fyUvw5QtPV9Wiu8gB0H8-26" vertex="1">
          <mxGeometry y="86" width="330" height="26" as="geometry" />
        </mxCell>
        <mxCell id="fyUvw5QtPV9Wiu8gB0H8-30" value="&lt;b&gt;&lt;font style=&quot;font-size: 30px;&quot;&gt;Class diagramms&lt;/font&gt;&lt;/b&gt;" style="text;html=1;align=center;verticalAlign=middle;resizable=0;points=[];autosize=1;strokeColor=none;fillColor=none;" parent="1" vertex="1">
          <mxGeometry x="-520" y="-130" width="270" height="50" as="geometry" />
        </mxCell>
        <mxCell id="fyUvw5QtPV9Wiu8gB0H8-31" value="&lt;font size=&quot;1&quot;&gt;&lt;b style=&quot;font-size: 30px;&quot;&gt;Flowchart&lt;/b&gt;&lt;/font&gt;" style="text;html=1;align=center;verticalAlign=middle;resizable=0;points=[];autosize=1;strokeColor=none;fillColor=none;" parent="1" vertex="1">
          <mxGeometry x="1735" y="-240" width="160" height="50" as="geometry" />
        </mxCell>
        <mxCell id="fyUvw5QtPV9Wiu8gB0H8-34" value="main" style="rounded=1;whiteSpace=wrap;html=1;" parent="1" vertex="1">
          <mxGeometry x="1735" y="-180" width="120" height="60" as="geometry" />
        </mxCell>
        <mxCell id="YBbd6qHGsjDS6U28tkjz-115" style="edgeStyle=orthogonalEdgeStyle;rounded=0;orthogonalLoop=1;jettySize=auto;html=1;exitX=1;exitY=0.5;exitDx=0;exitDy=0;exitPerimeter=0;entryX=0.5;entryY=0;entryDx=0;entryDy=0;entryPerimeter=0;" parent="1" source="fyUvw5QtPV9Wiu8gB0H8-35" target="YBbd6qHGsjDS6U28tkjz-114" edge="1">
          <mxGeometry relative="1" as="geometry" />
        </mxCell>
        <mxCell id="6sdkXRkWTDobi1n3qOID-7" style="edgeStyle=orthogonalEdgeStyle;rounded=0;orthogonalLoop=1;jettySize=auto;html=1;exitX=0;exitY=0.5;exitDx=0;exitDy=0;exitPerimeter=0;entryX=0.5;entryY=0;entryDx=0;entryDy=0;" parent="1" source="fyUvw5QtPV9Wiu8gB0H8-35" target="YBbd6qHGsjDS6U28tkjz-9" edge="1">
          <mxGeometry relative="1" as="geometry">
            <mxPoint x="1580.0000000000005" y="160.00000000000023" as="targetPoint" />
          </mxGeometry>
        </mxCell>
        <mxCell id="fyUvw5QtPV9Wiu8gB0H8-35" value="mpi?" style="strokeWidth=2;html=1;shape=mxgraph.flowchart.decision;whiteSpace=wrap;" parent="1" vertex="1">
          <mxGeometry x="1745" y="156" width="100" height="100" as="geometry" />
        </mxCell>
        <mxCell id="fyUvw5QtPV9Wiu8gB0H8-42" value="Y" style="text;html=1;align=center;verticalAlign=middle;resizable=0;points=[];autosize=1;strokeColor=none;fillColor=none;" parent="1" vertex="1">
          <mxGeometry x="1875" y="174" width="30" height="30" as="geometry" />
        </mxCell>
        <mxCell id="fyUvw5QtPV9Wiu8gB0H8-45" value="N" style="text;html=1;align=center;verticalAlign=middle;resizable=0;points=[];autosize=1;strokeColor=none;fillColor=none;" parent="1" vertex="1">
          <mxGeometry x="1695" y="173" width="30" height="30" as="geometry" />
        </mxCell>
        <mxCell id="YBbd6qHGsjDS6U28tkjz-1" value="since the programm will be run as sbatch&lt;br&gt;and the like it is nice if there is at least one&lt;br&gt;place to define all the params and a contfig file might be nice&lt;br&gt;Read config herer for decide if mpi shall be used or not.&lt;br&gt;Make this file a python dict that is imported in the end&lt;br&gt;&lt;br&gt;This step includes to define all user functions like experiments and&amp;nbsp; on_init...&lt;br&gt;It will load all these functions from the respective files and pass them to the controller instance or the worker instance" style="text;html=1;align=center;verticalAlign=middle;resizable=0;points=[];autosize=1;strokeColor=none;fillColor=none;" parent="1" vertex="1">
          <mxGeometry x="1465" y="-110" width="640" height="130" as="geometry" />
        </mxCell>
        <mxCell id="YBbd6qHGsjDS6U28tkjz-32" value="" style="edgeStyle=orthogonalEdgeStyle;rounded=0;orthogonalLoop=1;jettySize=auto;html=1;" parent="1" source="YBbd6qHGsjDS6U28tkjz-9" edge="1">
          <mxGeometry relative="1" as="geometry">
            <mxPoint x="1600" y="640" as="targetPoint" />
          </mxGeometry>
        </mxCell>
        <mxCell id="YBbd6qHGsjDS6U28tkjz-172" style="edgeStyle=orthogonalEdgeStyle;rounded=0;orthogonalLoop=1;jettySize=auto;html=1;exitX=0;exitY=0.5;exitDx=0;exitDy=0;entryX=1;entryY=0.5;entryDx=0;entryDy=0;" parent="1" source="YBbd6qHGsjDS6U28tkjz-9" target="YBbd6qHGsjDS6U28tkjz-168" edge="1">
          <mxGeometry relative="1" as="geometry" />
        </mxCell>
        <mxCell id="YBbd6qHGsjDS6U28tkjz-9" value="CONTROLLER&lt;br&gt;INIT" style="rounded=1;whiteSpace=wrap;html=1;" parent="1" vertex="1">
          <mxGeometry x="1540" y="500" width="120" height="60" as="geometry" />
        </mxCell>
        <mxCell id="YBbd6qHGsjDS6U28tkjz-30" value="Think:&lt;br&gt;&amp;nbsp;operators distributed among different populations (each has one)&lt;br&gt;and then let the populations meet at some point to make new population.&lt;br&gt;Which operator to use then for this population? the one from each?&lt;br&gt;Or make thwo populations one with each operator?&lt;br&gt;Which populations to ditch then to not reach more then max? (just make not more then N*2 Pops )&lt;br&gt;&lt;br&gt;Maybe for the name of a population make a random string which can reflect from which indexes the populations where made&lt;br&gt;so it is possible in the end to track how the most fittest individuan emerged.&lt;br&gt;It would be good since then one would have a &quot;stammbaum&quot; for each individual and as such can&lt;br&gt;Decide if population fusion/combination is bringing good :)&lt;br&gt;also for master thesis evolver this could be helpfull to understand the algorithm.&lt;br&gt;&lt;br&gt;&lt;div&gt;having n operrators per pop and the abbillity to produce w new offsprings per op.&lt;/div&gt;&lt;div&gt;If to much &amp;gt; pop sixe warning&lt;/div&gt;&lt;div&gt;Does the combining of ops yeld better results? maybe a performance test.&lt;/div&gt;&lt;div&gt;for islands merge one could think of own operators that are used only for merging!?&lt;/div&gt;&lt;div&gt;Then leave the option to take ops for the fusioned pops from the pop&#39;s they wehere fusioned, maybe also randomly?&lt;/div&gt;&lt;div&gt;Is there a way to incorporate fremde dna?&lt;/div&gt;&lt;div&gt;maybe keep it simple as possible but keep the design options to easly extend.&lt;/div&gt;&lt;div&gt;See the whole as planning ordering building traineing fo you&lt;/div&gt;" style="text;html=1;align=left;verticalAlign=middle;resizable=0;points=[];autosize=1;strokeColor=none;fillColor=none;" parent="1" vertex="1">
          <mxGeometry x="-820" y="28" width="680" height="320" as="geometry" />
        </mxCell>
        <mxCell id="YBbd6qHGsjDS6U28tkjz-35" style="edgeStyle=orthogonalEdgeStyle;rounded=0;orthogonalLoop=1;jettySize=auto;html=1;exitX=0.5;exitY=1;exitDx=0;exitDy=0;exitPerimeter=0;" parent="1" source="YBbd6qHGsjDS6U28tkjz-33" target="YBbd6qHGsjDS6U28tkjz-34" edge="1">
          <mxGeometry relative="1" as="geometry" />
        </mxCell>
        <mxCell id="YBbd6qHGsjDS6U28tkjz-33" value="while Controller.fitness or Controller.epochs&amp;nbsp;" style="strokeWidth=2;html=1;shape=mxgraph.flowchart.loop_limit;whiteSpace=wrap;" parent="1" vertex="1">
          <mxGeometry x="1550" y="640" width="100" height="60" as="geometry" />
        </mxCell>
        <mxCell id="YBbd6qHGsjDS6U28tkjz-37" value="" style="edgeStyle=orthogonalEdgeStyle;rounded=0;orthogonalLoop=1;jettySize=auto;html=1;" parent="1" source="YBbd6qHGsjDS6U28tkjz-34" target="YBbd6qHGsjDS6U28tkjz-36" edge="1">
          <mxGeometry relative="1" as="geometry" />
        </mxCell>
        <mxCell id="YBbd6qHGsjDS6U28tkjz-39" value="" style="edgeStyle=orthogonalEdgeStyle;rounded=0;orthogonalLoop=1;jettySize=auto;html=1;" parent="1" source="YBbd6qHGsjDS6U28tkjz-34" target="YBbd6qHGsjDS6U28tkjz-36" edge="1">
          <mxGeometry relative="1" as="geometry" />
        </mxCell>
        <mxCell id="YBbd6qHGsjDS6U28tkjz-42" style="edgeStyle=orthogonalEdgeStyle;rounded=0;orthogonalLoop=1;jettySize=auto;html=1;exitX=0;exitY=0.5;exitDx=0;exitDy=0;entryX=1;entryY=0.5;entryDx=0;entryDy=0;" parent="1" source="YBbd6qHGsjDS6U28tkjz-34" target="YBbd6qHGsjDS6U28tkjz-40" edge="1">
          <mxGeometry relative="1" as="geometry" />
        </mxCell>
        <mxCell id="YBbd6qHGsjDS6U28tkjz-49" style="edgeStyle=orthogonalEdgeStyle;rounded=0;orthogonalLoop=1;jettySize=auto;html=1;exitX=0;exitY=0.5;exitDx=0;exitDy=0;entryX=1;entryY=0.5;entryDx=0;entryDy=0;" parent="1" source="YBbd6qHGsjDS6U28tkjz-34" target="YBbd6qHGsjDS6U28tkjz-45" edge="1">
          <mxGeometry relative="1" as="geometry" />
        </mxCell>
        <mxCell id="6sdkXRkWTDobi1n3qOID-25" style="edgeStyle=orthogonalEdgeStyle;rounded=0;orthogonalLoop=1;jettySize=auto;html=1;exitX=0.5;exitY=1;exitDx=0;exitDy=0;entryX=0.5;entryY=0;entryDx=0;entryDy=0;" parent="1" source="YBbd6qHGsjDS6U28tkjz-34" target="6sdkXRkWTDobi1n3qOID-22" edge="1">
          <mxGeometry relative="1" as="geometry" />
        </mxCell>
        <mxCell id="YBbd6qHGsjDS6U28tkjz-34" value="Controller.epoch()" style="rounded=1;whiteSpace=wrap;html=1;" parent="1" vertex="1">
          <mxGeometry x="1540" y="838" width="120" height="60" as="geometry" />
        </mxCell>
        <mxCell id="YBbd6qHGsjDS6U28tkjz-36" value="population.mutate()" style="whiteSpace=wrap;html=1;rounded=1;" parent="1" vertex="1">
          <mxGeometry x="1281" y="838" width="120" height="60" as="geometry" />
        </mxCell>
        <mxCell id="YBbd6qHGsjDS6U28tkjz-38" value="call mutate on all the populations" style="text;html=1;align=center;verticalAlign=middle;resizable=0;points=[];autosize=1;strokeColor=none;fillColor=none;" parent="1" vertex="1">
          <mxGeometry x="1240" y="797" width="200" height="30" as="geometry" />
        </mxCell>
        <mxCell id="YBbd6qHGsjDS6U28tkjz-40" value="population.recombine(&lt;br&gt;operator(g_0,g_1))" style="whiteSpace=wrap;html=1;rounded=1;" parent="1" vertex="1">
          <mxGeometry x="1281" y="1148" width="120" height="60" as="geometry" />
        </mxCell>
        <mxCell id="YBbd6qHGsjDS6U28tkjz-44" value="will create N new individuals based on the the operators&lt;br&gt;&amp;nbsp;and replace them with the last in the list.&lt;br&gt;N &amp;lt;= popsize, if N==popsize no elitism :)" style="text;html=1;align=center;verticalAlign=middle;resizable=0;points=[];autosize=1;strokeColor=none;fillColor=none;" parent="1" vertex="1">
          <mxGeometry x="1220" y="1095" width="320" height="60" as="geometry" />
        </mxCell>
        <mxCell id="YBbd6qHGsjDS6U28tkjz-176" style="edgeStyle=orthogonalEdgeStyle;rounded=0;orthogonalLoop=1;jettySize=auto;html=1;exitX=0;exitY=0.5;exitDx=0;exitDy=0;entryX=0.5;entryY=0;entryDx=0;entryDy=0;entryPerimeter=0;" parent="1" source="YBbd6qHGsjDS6U28tkjz-45" target="YBbd6qHGsjDS6U28tkjz-173" edge="1">
          <mxGeometry relative="1" as="geometry" />
        </mxCell>
        <mxCell id="YBbd6qHGsjDS6U28tkjz-45" value="population.instantiiate_&lt;br&gt;individuals(mpi=true)" style="whiteSpace=wrap;html=1;rounded=1;" parent="1" vertex="1">
          <mxGeometry x="1281" y="990" width="120" height="60" as="geometry" />
        </mxCell>
        <mxCell id="YBbd6qHGsjDS6U28tkjz-50" value="Here the fitness value will be evaluated by conducting the experiment&lt;br&gt;Based on bool mpi use the mpi passing model&lt;br&gt;or the process pool model to distribute the genes from&lt;br&gt;the populations to the experiments." style="text;html=1;align=center;verticalAlign=middle;resizable=0;points=[];autosize=1;strokeColor=none;fillColor=none;" parent="1" vertex="1">
          <mxGeometry x="1126" y="918" width="390" height="70" as="geometry" />
        </mxCell>
        <mxCell id="YBbd6qHGsjDS6U28tkjz-52" value="Experiment" style="swimlane;fontStyle=1;align=center;verticalAlign=top;childLayout=stackLayout;horizontal=1;startSize=26;horizontalStack=0;resizeParent=1;resizeParentMax=0;resizeLast=0;collapsible=1;marginBottom=0;whiteSpace=wrap;html=1;" parent="1" vertex="1">
          <mxGeometry x="-520" y="777" width="160" height="164" as="geometry" />
        </mxCell>
        <mxCell id="YBbd6qHGsjDS6U28tkjz-53" value="+ inputs: ?" style="text;strokeColor=none;fillColor=none;align=left;verticalAlign=top;spacingLeft=4;spacingRight=4;overflow=hidden;rotatable=0;points=[[0,0.5],[1,0.5]];portConstraint=eastwest;whiteSpace=wrap;html=1;" parent="YBbd6qHGsjDS6U28tkjz-52" vertex="1">
          <mxGeometry y="26" width="160" height="26" as="geometry" />
        </mxCell>
        <mxCell id="YBbd6qHGsjDS6U28tkjz-54" value="+ outputs:?" style="text;strokeColor=none;fillColor=none;align=left;verticalAlign=top;spacingLeft=4;spacingRight=4;overflow=hidden;rotatable=0;points=[[0,0.5],[1,0.5]];portConstraint=eastwest;whiteSpace=wrap;html=1;" parent="YBbd6qHGsjDS6U28tkjz-52" vertex="1">
          <mxGeometry y="52" width="160" height="26" as="geometry" />
        </mxCell>
        <mxCell id="YBbd6qHGsjDS6U28tkjz-57" value="+ Environment" style="text;strokeColor=none;fillColor=none;align=left;verticalAlign=top;spacingLeft=4;spacingRight=4;overflow=hidden;rotatable=0;points=[[0,0.5],[1,0.5]];portConstraint=eastwest;whiteSpace=wrap;html=1;" parent="YBbd6qHGsjDS6U28tkjz-52" vertex="1">
          <mxGeometry y="78" width="160" height="26" as="geometry" />
        </mxCell>
        <mxCell id="6sdkXRkWTDobi1n3qOID-35" value="+ Fitness_function?" style="text;strokeColor=none;fillColor=none;align=left;verticalAlign=top;spacingLeft=4;spacingRight=4;overflow=hidden;rotatable=0;points=[[0,0.5],[1,0.5]];portConstraint=eastwest;whiteSpace=wrap;html=1;" parent="YBbd6qHGsjDS6U28tkjz-52" vertex="1">
          <mxGeometry y="104" width="160" height="26" as="geometry" />
        </mxCell>
        <mxCell id="YBbd6qHGsjDS6U28tkjz-55" value="" style="line;strokeWidth=1;fillColor=none;align=left;verticalAlign=middle;spacingTop=-1;spacingLeft=3;spacingRight=3;rotatable=0;labelPosition=right;points=[];portConstraint=eastwest;strokeColor=inherit;" parent="YBbd6qHGsjDS6U28tkjz-52" vertex="1">
          <mxGeometry y="130" width="160" height="8" as="geometry" />
        </mxCell>
        <mxCell id="YBbd6qHGsjDS6U28tkjz-56" value="+ ?" style="text;strokeColor=none;fillColor=none;align=left;verticalAlign=top;spacingLeft=4;spacingRight=4;overflow=hidden;rotatable=0;points=[[0,0.5],[1,0.5]];portConstraint=eastwest;whiteSpace=wrap;html=1;" parent="YBbd6qHGsjDS6U28tkjz-52" vertex="1">
          <mxGeometry y="138" width="160" height="26" as="geometry" />
        </mxCell>
        <mxCell id="YBbd6qHGsjDS6U28tkjz-58" value="Environment" style="swimlane;fontStyle=1;align=center;verticalAlign=top;childLayout=stackLayout;horizontal=1;startSize=26;horizontalStack=0;resizeParent=1;resizeParentMax=0;resizeLast=0;collapsible=1;marginBottom=0;whiteSpace=wrap;html=1;" parent="1" vertex="1">
          <mxGeometry x="-256" y="826" width="230" height="112" as="geometry" />
        </mxCell>
        <mxCell id="YBbd6qHGsjDS6U28tkjz-59" value="+ name: string" style="text;strokeColor=none;fillColor=none;align=left;verticalAlign=top;spacingLeft=4;spacingRight=4;overflow=hidden;rotatable=0;points=[[0,0.5],[1,0.5]];portConstraint=eastwest;whiteSpace=wrap;html=1;" parent="YBbd6qHGsjDS6U28tkjz-58" vertex="1">
          <mxGeometry y="26" width="230" height="26" as="geometry" />
        </mxCell>
        <mxCell id="YBbd6qHGsjDS6U28tkjz-62" value="" style="line;strokeWidth=1;fillColor=none;align=left;verticalAlign=middle;spacingTop=-1;spacingLeft=3;spacingRight=3;rotatable=0;labelPosition=right;points=[];portConstraint=eastwest;strokeColor=inherit;" parent="YBbd6qHGsjDS6U28tkjz-58" vertex="1">
          <mxGeometry y="52" width="230" height="8" as="geometry" />
        </mxCell>
        <mxCell id="YBbd6qHGsjDS6U28tkjz-63" value="+ instantiate_individual(gene)" style="text;strokeColor=none;fillColor=none;align=left;verticalAlign=top;spacingLeft=4;spacingRight=4;overflow=hidden;rotatable=0;points=[[0,0.5],[1,0.5]];portConstraint=eastwest;whiteSpace=wrap;html=1;" parent="YBbd6qHGsjDS6U28tkjz-58" vertex="1">
          <mxGeometry y="60" width="230" height="26" as="geometry" />
        </mxCell>
        <mxCell id="6sdkXRkWTDobi1n3qOID-34" value="+ save_instantiation(filename, gene)" style="text;strokeColor=none;fillColor=none;align=left;verticalAlign=top;spacingLeft=4;spacingRight=4;overflow=hidden;rotatable=0;points=[[0,0.5],[1,0.5]];portConstraint=eastwest;whiteSpace=wrap;html=1;" parent="YBbd6qHGsjDS6U28tkjz-58" vertex="1">
          <mxGeometry y="86" width="230" height="26" as="geometry" />
        </mxCell>
        <mxCell id="YBbd6qHGsjDS6U28tkjz-85" style="edgeStyle=orthogonalEdgeStyle;rounded=0;orthogonalLoop=1;jettySize=auto;html=1;exitX=0;exitY=0.5;exitDx=0;exitDy=0;exitPerimeter=0;entryX=1;entryY=0.5;entryDx=0;entryDy=0;" parent="1" source="YBbd6qHGsjDS6U28tkjz-74" target="YBbd6qHGsjDS6U28tkjz-75" edge="1">
          <mxGeometry relative="1" as="geometry" />
        </mxCell>
        <mxCell id="YBbd6qHGsjDS6U28tkjz-88" style="edgeStyle=orthogonalEdgeStyle;rounded=0;orthogonalLoop=1;jettySize=auto;html=1;exitX=0;exitY=0.5;exitDx=0;exitDy=0;exitPerimeter=0;entryX=1;entryY=0.5;entryDx=0;entryDy=0;" parent="1" source="YBbd6qHGsjDS6U28tkjz-74" target="YBbd6qHGsjDS6U28tkjz-87" edge="1">
          <mxGeometry relative="1" as="geometry" />
        </mxCell>
        <mxCell id="6sdkXRkWTDobi1n3qOID-27" style="edgeStyle=orthogonalEdgeStyle;rounded=0;orthogonalLoop=1;jettySize=auto;html=1;exitX=0.5;exitY=1;exitDx=0;exitDy=0;exitPerimeter=0;entryX=0.5;entryY=0;entryDx=0;entryDy=0;" parent="1" source="YBbd6qHGsjDS6U28tkjz-74" target="6sdkXRkWTDobi1n3qOID-21" edge="1">
          <mxGeometry relative="1" as="geometry" />
        </mxCell>
        <mxCell id="YBbd6qHGsjDS6U28tkjz-74" value="Combine populations into new one?" style="strokeWidth=2;html=1;shape=mxgraph.flowchart.decision;whiteSpace=wrap;" parent="1" vertex="1">
          <mxGeometry x="1550" y="1394" width="100" height="100" as="geometry" />
        </mxCell>
        <mxCell id="6sdkXRkWTDobi1n3qOID-17" style="edgeStyle=orthogonalEdgeStyle;rounded=0;orthogonalLoop=1;jettySize=auto;html=1;exitX=0;exitY=0.5;exitDx=0;exitDy=0;entryX=1;entryY=0.5;entryDx=0;entryDy=0;" parent="1" source="YBbd6qHGsjDS6U28tkjz-75" target="6sdkXRkWTDobi1n3qOID-16" edge="1">
          <mxGeometry relative="1" as="geometry" />
        </mxCell>
        <mxCell id="YBbd6qHGsjDS6U28tkjz-75" value="Controller.&lt;br&gt;population_fusion&lt;br&gt;(Indexes)" style="whiteSpace=wrap;html=1;rounded=1;" parent="1" vertex="1">
          <mxGeometry x="1213" y="1414" width="120" height="60" as="geometry" />
        </mxCell>
        <mxCell id="YBbd6qHGsjDS6U28tkjz-79" value="Y" style="text;html=1;align=center;verticalAlign=middle;resizable=0;points=[];autosize=1;strokeColor=none;fillColor=none;" parent="1" vertex="1">
          <mxGeometry x="1511" y="1418" width="30" height="30" as="geometry" />
        </mxCell>
        <mxCell id="YBbd6qHGsjDS6U28tkjz-80" value="N" style="text;html=1;align=center;verticalAlign=middle;resizable=0;points=[];autosize=1;strokeColor=none;fillColor=none;" parent="1" vertex="1">
          <mxGeometry x="1650" y="1414" width="30" height="30" as="geometry" />
        </mxCell>
        <mxCell id="YBbd6qHGsjDS6U28tkjz-81" value="There needs to be some configurable parameter maybe:&lt;br&gt;&amp;nbsp;epochs&lt;br&gt;certain change in fitness&lt;br&gt;Gene diversity&lt;br&gt;&amp;nbsp;on which to start this combination process.&lt;br&gt;Gene diversity tracking and if it stagnates then this could be called&lt;br&gt;Experiment or fitness function could also set a flag to call this&lt;br&gt;in the next round" style="text;html=1;align=center;verticalAlign=middle;resizable=0;points=[];autosize=1;strokeColor=none;fillColor=none;" parent="1" vertex="1">
          <mxGeometry x="1416" y="1217" width="380" height="130" as="geometry" />
        </mxCell>
        <mxCell id="YBbd6qHGsjDS6U28tkjz-97" style="edgeStyle=orthogonalEdgeStyle;rounded=0;orthogonalLoop=1;jettySize=auto;html=1;exitX=0.5;exitY=1;exitDx=0;exitDy=0;entryX=0.5;entryY=0;entryDx=0;entryDy=0;" parent="1" source="6sdkXRkWTDobi1n3qOID-21" target="YBbd6qHGsjDS6U28tkjz-96" edge="1">
          <mxGeometry relative="1" as="geometry">
            <mxPoint x="1590" y="2020" as="sourcePoint" />
          </mxGeometry>
        </mxCell>
        <mxCell id="YBbd6qHGsjDS6U28tkjz-86" value="This will fusion the populations at the indexes inside the Controller&lt;br&gt;Population array. It will allow therefore to choose not only the fittest&lt;br&gt;But also random choices possible.&lt;br&gt;How to fusion populations?&lt;br&gt;Apply the genetic operators on them to create new individuals.&lt;br&gt;Make two pops, one with the operator from population one, one from the other one" style="text;html=1;align=center;verticalAlign=middle;resizable=0;points=[];autosize=1;strokeColor=none;fillColor=none;" parent="1" vertex="1">
          <mxGeometry x="1022" y="1314" width="460" height="100" as="geometry" />
        </mxCell>
        <mxCell id="YBbd6qHGsjDS6U28tkjz-87" value="Controller.&lt;br&gt;population_removal&lt;br&gt;(Indexes)" style="whiteSpace=wrap;html=1;rounded=1;" parent="1" vertex="1">
          <mxGeometry x="1206" y="1700" width="120" height="60" as="geometry" />
        </mxCell>
        <mxCell id="YBbd6qHGsjDS6U28tkjz-89" value="Since new populations are there the need to shrink.&lt;br&gt;Indexes for more option.&lt;br&gt;But generally take the ones with the worst fitness.&lt;br&gt;But it might be okay to first test the newly generated because to make sure that you&lt;br&gt;do not remove some that are better then the newly generated?&lt;br&gt;So here a eval and experimental step of the new populations could be helpfull.&lt;br&gt;And generally it might be good for the diversity to keel the old populations?&lt;br&gt;Maybe make a switch for that so these are kept anyway?&lt;br&gt;Could be done in a index selection function" style="text;html=1;align=center;verticalAlign=middle;resizable=0;points=[];autosize=1;strokeColor=none;fillColor=none;" parent="1" vertex="1">
          <mxGeometry x="1013" y="1547" width="470" height="140" as="geometry" />
        </mxCell>
        <mxCell id="YBbd6qHGsjDS6U28tkjz-102" value="" style="edgeStyle=orthogonalEdgeStyle;rounded=0;orthogonalLoop=1;jettySize=auto;html=1;" parent="1" source="YBbd6qHGsjDS6U28tkjz-96" target="YBbd6qHGsjDS6U28tkjz-101" edge="1">
          <mxGeometry relative="1" as="geometry" />
        </mxCell>
        <mxCell id="YBbd6qHGsjDS6U28tkjz-96" value="Controller.&lt;br&gt;get_fittest(N)" style="whiteSpace=wrap;html=1;rounded=1;" parent="1" vertex="1">
          <mxGeometry x="1540" y="1860" width="120" height="60" as="geometry" />
        </mxCell>
        <mxCell id="YBbd6qHGsjDS6U28tkjz-98" value="Get the N fittest members from all populations.&lt;br&gt;Display some information about them" style="text;html=1;align=center;verticalAlign=middle;resizable=0;points=[];autosize=1;strokeColor=none;fillColor=none;" parent="1" vertex="1">
          <mxGeometry x="1473" y="1800" width="270" height="40" as="geometry" />
        </mxCell>
        <mxCell id="YBbd6qHGsjDS6U28tkjz-105" value="" style="edgeStyle=orthogonalEdgeStyle;rounded=0;orthogonalLoop=1;jettySize=auto;html=1;" parent="1" source="YBbd6qHGsjDS6U28tkjz-101" target="YBbd6qHGsjDS6U28tkjz-104" edge="1">
          <mxGeometry relative="1" as="geometry" />
        </mxCell>
        <mxCell id="YBbd6qHGsjDS6U28tkjz-101" value="Controller.&lt;br&gt;experiment.&lt;br&gt;world.&lt;br&gt;instantiate(gene)" style="whiteSpace=wrap;html=1;rounded=1;" parent="1" vertex="1">
          <mxGeometry x="1540" y="2025" width="120" height="60" as="geometry" />
        </mxCell>
        <mxCell id="YBbd6qHGsjDS6U28tkjz-103" value="Instantiate the most fittest ones so that one can work with them&amp;nbsp;" style="text;html=1;align=center;verticalAlign=middle;resizable=0;points=[];autosize=1;strokeColor=none;fillColor=none;" parent="1" vertex="1">
          <mxGeometry x="1436" y="1966" width="360" height="30" as="geometry" />
        </mxCell>
        <mxCell id="YBbd6qHGsjDS6U28tkjz-104" value="Save" style="whiteSpace=wrap;html=1;rounded=1;" parent="1" vertex="1">
          <mxGeometry x="1540" y="2220" width="120" height="60" as="geometry" />
        </mxCell>
        <mxCell id="YBbd6qHGsjDS6U28tkjz-106" value="Save the results:&lt;br&gt;the most fittest genes&lt;br&gt;the instantiation of the most fittest genes.&lt;br&gt;The instantiation is saved via the method the&lt;br&gt;experiment/world is implementing.&lt;br&gt;If it is not implementing such save feature one can save the gene string and pass&amp;nbsp;&lt;br&gt;it to the representative function in the world to get something usefull" style="text;html=1;align=center;verticalAlign=middle;resizable=0;points=[];autosize=1;strokeColor=none;fillColor=none;" parent="1" vertex="1">
          <mxGeometry x="1375" y="2099" width="460" height="110" as="geometry" />
        </mxCell>
        <mxCell id="YBbd6qHGsjDS6U28tkjz-108" value="+ save_instantiation(gene):&lt;br&gt;Will save the instantiation of the individual&lt;br&gt;This will allow it for further use and&lt;br&gt;reflects the result of the genetic algorithm.&lt;br&gt;&lt;br&gt;instantiate_individual(gene) will use the fitness funtion to test the individual?&lt;br&gt;Or will it make the object (a logic circuit) which is then passed back to the Experiment&lt;br&gt;Which will then evaluate it based on the fitness function?" style="text;html=1;align=left;verticalAlign=middle;resizable=0;points=[];autosize=1;strokeColor=none;fillColor=none;" parent="1" vertex="1">
          <mxGeometry x="-256" y="698" width="480" height="130" as="geometry" />
        </mxCell>
        <mxCell id="YBbd6qHGsjDS6U28tkjz-161" style="edgeStyle=orthogonalEdgeStyle;rounded=0;orthogonalLoop=1;jettySize=auto;html=1;exitX=0;exitY=0.5;exitDx=0;exitDy=0;exitPerimeter=0;entryX=0.5;entryY=0;entryDx=0;entryDy=0;" parent="1" source="YBbd6qHGsjDS6U28tkjz-114" target="YBbd6qHGsjDS6U28tkjz-9" edge="1">
          <mxGeometry relative="1" as="geometry">
            <mxPoint x="1970.0000000000005" y="363" as="targetPoint" />
          </mxGeometry>
        </mxCell>
        <mxCell id="YBbd6qHGsjDS6U28tkjz-162" style="edgeStyle=orthogonalEdgeStyle;rounded=0;orthogonalLoop=1;jettySize=auto;html=1;exitX=1;exitY=0.5;exitDx=0;exitDy=0;exitPerimeter=0;entryX=0.5;entryY=0;entryDx=0;entryDy=0;" parent="1" source="YBbd6qHGsjDS6U28tkjz-114" target="YBbd6qHGsjDS6U28tkjz-116" edge="1">
          <mxGeometry relative="1" as="geometry">
            <mxPoint x="2377.5" y="440" as="sourcePoint" />
          </mxGeometry>
        </mxCell>
        <mxCell id="YBbd6qHGsjDS6U28tkjz-114" value="controller or&lt;br&gt;Worker?" style="strokeWidth=2;html=1;shape=mxgraph.flowchart.decision;whiteSpace=wrap;" parent="1" vertex="1">
          <mxGeometry x="2315" y="236" width="100" height="100" as="geometry" />
        </mxCell>
        <mxCell id="YBbd6qHGsjDS6U28tkjz-122" value="" style="edgeStyle=orthogonalEdgeStyle;rounded=0;orthogonalLoop=1;jettySize=auto;html=1;" parent="1" source="YBbd6qHGsjDS6U28tkjz-116" target="YBbd6qHGsjDS6U28tkjz-121" edge="1">
          <mxGeometry relative="1" as="geometry" />
        </mxCell>
        <mxCell id="YBbd6qHGsjDS6U28tkjz-116" value="Init_Worker&lt;br&gt;Wait for work" style="rounded=1;whiteSpace=wrap;html=1;" parent="1" vertex="1">
          <mxGeometry x="2589" y="320" width="120" height="60" as="geometry" />
        </mxCell>
        <mxCell id="YBbd6qHGsjDS6U28tkjz-128" style="edgeStyle=orthogonalEdgeStyle;rounded=0;orthogonalLoop=1;jettySize=auto;html=1;exitX=0;exitY=0.5;exitDx=0;exitDy=0;entryX=1;entryY=0.5;entryDx=0;entryDy=0;" parent="1" source="YBbd6qHGsjDS6U28tkjz-121" target="YBbd6qHGsjDS6U28tkjz-125" edge="1">
          <mxGeometry relative="1" as="geometry" />
        </mxCell>
        <mxCell id="YBbd6qHGsjDS6U28tkjz-131" value="" style="edgeStyle=orthogonalEdgeStyle;rounded=0;orthogonalLoop=1;jettySize=auto;html=1;" parent="1" source="YBbd6qHGsjDS6U28tkjz-121" target="YBbd6qHGsjDS6U28tkjz-130" edge="1">
          <mxGeometry relative="1" as="geometry" />
        </mxCell>
        <mxCell id="YBbd6qHGsjDS6U28tkjz-121" value="get_gene()" style="whiteSpace=wrap;html=1;rounded=1;" parent="1" vertex="1">
          <mxGeometry x="2590" y="462" width="120" height="60" as="geometry" />
        </mxCell>
        <mxCell id="YBbd6qHGsjDS6U28tkjz-125" value="EXPERIMENT&lt;br&gt;WORKFLOW" style="whiteSpace=wrap;html=1;rounded=1;" parent="1" vertex="1">
          <mxGeometry x="2373" y="461" width="120" height="60" as="geometry" />
        </mxCell>
        <mxCell id="YBbd6qHGsjDS6U28tkjz-130" value="return fitness" style="whiteSpace=wrap;html=1;rounded=1;" parent="1" vertex="1">
          <mxGeometry x="2589" y="600" width="120" height="60" as="geometry" />
        </mxCell>
        <mxCell id="YBbd6qHGsjDS6U28tkjz-133" value="Controller init&amp;nbsp;" style="text;html=1;align=center;verticalAlign=middle;resizable=0;points=[];autosize=1;strokeColor=none;fillColor=none;fontStyle=1;fontSize=30;fontColor=#006600;" parent="1" vertex="1">
          <mxGeometry x="1010" y="186" width="230" height="50" as="geometry" />
        </mxCell>
        <mxCell id="YBbd6qHGsjDS6U28tkjz-151" value="Experiment workflow" style="text;html=1;align=center;verticalAlign=middle;resizable=0;points=[];autosize=1;strokeColor=none;fillColor=none;fontStyle=1;fontSize=30;fontColor=#006600;" parent="1" vertex="1">
          <mxGeometry x="2089.5" y="748" width="330" height="50" as="geometry" />
        </mxCell>
        <mxCell id="YBbd6qHGsjDS6U28tkjz-152" value="" style="edgeStyle=orthogonalEdgeStyle;rounded=0;orthogonalLoop=1;jettySize=auto;html=1;" parent="1" source="YBbd6qHGsjDS6U28tkjz-154" target="YBbd6qHGsjDS6U28tkjz-155" edge="1">
          <mxGeometry relative="1" as="geometry" />
        </mxCell>
        <mxCell id="YBbd6qHGsjDS6U28tkjz-153" style="edgeStyle=orthogonalEdgeStyle;rounded=0;orthogonalLoop=1;jettySize=auto;html=1;exitX=0;exitY=0.5;exitDx=0;exitDy=0;entryX=1;entryY=0.5;entryDx=0;entryDy=0;" parent="1" source="YBbd6qHGsjDS6U28tkjz-154" target="YBbd6qHGsjDS6U28tkjz-156" edge="1">
          <mxGeometry relative="1" as="geometry" />
        </mxCell>
        <mxCell id="6sdkXRkWTDobi1n3qOID-10" value="" style="edgeStyle=orthogonalEdgeStyle;rounded=0;orthogonalLoop=1;jettySize=auto;html=1;" parent="1" source="YBbd6qHGsjDS6U28tkjz-154" target="6sdkXRkWTDobi1n3qOID-9" edge="1">
          <mxGeometry relative="1" as="geometry" />
        </mxCell>
        <mxCell id="YBbd6qHGsjDS6U28tkjz-154" value="experiment.&lt;br&gt;test_individual(gene)" style="whiteSpace=wrap;html=1;rounded=1;" parent="1" vertex="1">
          <mxGeometry x="2253" y="1060" width="120" height="60" as="geometry" />
        </mxCell>
        <mxCell id="YBbd6qHGsjDS6U28tkjz-155" value="world.instantiate_&lt;br&gt;individual(gene)" style="whiteSpace=wrap;html=1;rounded=1;" parent="1" vertex="1">
          <mxGeometry x="2053" y="1060" width="120" height="60" as="geometry" />
        </mxCell>
        <mxCell id="YBbd6qHGsjDS6U28tkjz-156" value="world.test_&lt;br&gt;individual(input, outputs)" style="whiteSpace=wrap;html=1;rounded=1;" parent="1" vertex="1">
          <mxGeometry x="2049" y="1190" width="120" height="60" as="geometry" />
        </mxCell>
        <mxCell id="YBbd6qHGsjDS6U28tkjz-157" value="These are all objects where each object is one experiment(with its world)&lt;br&gt;on one individual.&lt;br&gt;As such this can be passed to a worker wrapper and here&lt;br&gt;for each individual a own worker process is generated testing the individual and&lt;br&gt;returns the fitness value, or whatever value is represented." style="text;html=1;align=center;verticalAlign=middle;resizable=0;points=[];autosize=1;strokeColor=none;fillColor=none;" parent="1" vertex="1">
          <mxGeometry x="2069" y="797" width="450" height="90" as="geometry" />
        </mxCell>
        <mxCell id="YBbd6qHGsjDS6U28tkjz-159" value="" style="edgeStyle=orthogonalEdgeStyle;rounded=0;orthogonalLoop=1;jettySize=auto;html=1;exitX=0.5;exitY=1;exitDx=0;exitDy=0;entryX=0.5;entryY=0;entryDx=0;entryDy=0;entryPerimeter=0;" parent="1" source="fyUvw5QtPV9Wiu8gB0H8-34" target="YBbd6qHGsjDS6U28tkjz-158" edge="1">
          <mxGeometry relative="1" as="geometry">
            <mxPoint x="1795" y="-120" as="sourcePoint" />
            <mxPoint x="1795" y="156" as="targetPoint" />
          </mxGeometry>
        </mxCell>
        <mxCell id="YBbd6qHGsjDS6U28tkjz-160" style="edgeStyle=orthogonalEdgeStyle;rounded=0;orthogonalLoop=1;jettySize=auto;html=1;exitX=0.5;exitY=1;exitDx=0;exitDy=0;entryX=0.5;entryY=0;entryDx=0;entryDy=0;entryPerimeter=0;" parent="1" source="YBbd6qHGsjDS6U28tkjz-158" target="fyUvw5QtPV9Wiu8gB0H8-35" edge="1">
          <mxGeometry relative="1" as="geometry" />
        </mxCell>
        <mxCell id="YBbd6qHGsjDS6U28tkjz-158" value="read_config()" style="whiteSpace=wrap;html=1;rounded=1;" parent="1" vertex="1">
          <mxGeometry x="1735" y="26" width="120" height="60" as="geometry" />
        </mxCell>
        <mxCell id="YBbd6qHGsjDS6U28tkjz-164" value="" style="edgeStyle=orthogonalEdgeStyle;rounded=0;orthogonalLoop=1;jettySize=auto;html=1;" parent="1" source="YBbd6qHGsjDS6U28tkjz-165" target="YBbd6qHGsjDS6U28tkjz-169" edge="1">
          <mxGeometry relative="1" as="geometry" />
        </mxCell>
        <mxCell id="YBbd6qHGsjDS6U28tkjz-165" value="init_populations()" style="whiteSpace=wrap;html=1;rounded=1;" parent="1" vertex="1">
          <mxGeometry x="1053" y="500" width="120" height="60" as="geometry" />
        </mxCell>
        <mxCell id="YBbd6qHGsjDS6U28tkjz-166" value="will create a population with given params&lt;br&gt;will create all gene strings and the like" style="text;html=1;align=center;verticalAlign=middle;resizable=0;points=[];autosize=1;strokeColor=none;fillColor=none;" parent="1" vertex="1">
          <mxGeometry x="985" y="435" width="250" height="40" as="geometry" />
        </mxCell>
        <mxCell id="YBbd6qHGsjDS6U28tkjz-167" style="edgeStyle=orthogonalEdgeStyle;rounded=0;orthogonalLoop=1;jettySize=auto;html=1;exitX=0;exitY=0.5;exitDx=0;exitDy=0;entryX=1;entryY=0.5;entryDx=0;entryDy=0;" parent="1" source="YBbd6qHGsjDS6U28tkjz-168" target="YBbd6qHGsjDS6U28tkjz-165" edge="1">
          <mxGeometry relative="1" as="geometry">
            <Array as="points">
              <mxPoint x="1216" y="530" />
              <mxPoint x="1216" y="530" />
            </Array>
          </mxGeometry>
        </mxCell>
        <mxCell id="YBbd6qHGsjDS6U28tkjz-168" value="Controlller = world_controller()" style="rounded=1;whiteSpace=wrap;html=1;" parent="1" vertex="1">
          <mxGeometry x="1306" y="500" width="120" height="60" as="geometry" />
        </mxCell>
        <mxCell id="YBbd6qHGsjDS6U28tkjz-169" value="init_individ.()" style="whiteSpace=wrap;html=1;rounded=1;" parent="1" vertex="1">
          <mxGeometry x="730" y="500" width="120" height="60" as="geometry" />
        </mxCell>
        <mxCell id="YBbd6qHGsjDS6U28tkjz-170" value="Will create the individuals inside the population.&lt;br&gt;" style="text;html=1;align=center;verticalAlign=middle;resizable=0;points=[];autosize=1;strokeColor=none;fillColor=none;" parent="1" vertex="1">
          <mxGeometry x="650" y="445" width="280" height="30" as="geometry" />
        </mxCell>
        <mxCell id="YBbd6qHGsjDS6U28tkjz-171" value="World_controller will handle all the populations&lt;br&gt;the genetic operators applied and&lt;br&gt;has functons to mutate&amp;nbsp;&lt;br&gt;as well as produce offsprings.&lt;br&gt;This is but just a bridge that calls all these funcitons&amp;nbsp;&lt;br&gt;on the populations itself." style="text;html=1;align=center;verticalAlign=middle;resizable=0;points=[];autosize=1;strokeColor=none;fillColor=none;" parent="1" vertex="1">
          <mxGeometry x="960" y="291" width="300" height="100" as="geometry" />
        </mxCell>
        <mxCell id="YBbd6qHGsjDS6U28tkjz-180" style="edgeStyle=orthogonalEdgeStyle;rounded=0;orthogonalLoop=1;jettySize=auto;html=1;exitX=1;exitY=0.5;exitDx=0;exitDy=0;exitPerimeter=0;entryX=0.5;entryY=0;entryDx=0;entryDy=0;" parent="1" source="YBbd6qHGsjDS6U28tkjz-173" target="YBbd6qHGsjDS6U28tkjz-177" edge="1">
          <mxGeometry relative="1" as="geometry" />
        </mxCell>
        <mxCell id="YBbd6qHGsjDS6U28tkjz-181" style="edgeStyle=orthogonalEdgeStyle;rounded=0;orthogonalLoop=1;jettySize=auto;html=1;exitX=0;exitY=0.5;exitDx=0;exitDy=0;exitPerimeter=0;entryX=0.5;entryY=0;entryDx=0;entryDy=0;" parent="1" source="YBbd6qHGsjDS6U28tkjz-173" target="YBbd6qHGsjDS6U28tkjz-179" edge="1">
          <mxGeometry relative="1" as="geometry" />
        </mxCell>
        <mxCell id="YBbd6qHGsjDS6U28tkjz-173" value="use MPI?" style="strokeWidth=2;html=1;shape=mxgraph.flowchart.decision;whiteSpace=wrap;" parent="1" vertex="1">
          <mxGeometry x="860" y="1050" width="100" height="100" as="geometry" />
        </mxCell>
        <mxCell id="YBbd6qHGsjDS6U28tkjz-177" value="pass genes to MPI workers" style="whiteSpace=wrap;html=1;rounded=1;" parent="1" vertex="1">
          <mxGeometry x="1000" y="1130" width="120" height="60" as="geometry" />
        </mxCell>
        <mxCell id="YBbd6qHGsjDS6U28tkjz-183" value="" style="edgeStyle=orthogonalEdgeStyle;rounded=0;orthogonalLoop=1;jettySize=auto;html=1;" parent="1" source="YBbd6qHGsjDS6U28tkjz-179" target="YBbd6qHGsjDS6U28tkjz-182" edge="1">
          <mxGeometry relative="1" as="geometry" />
        </mxCell>
        <mxCell id="YBbd6qHGsjDS6U28tkjz-179" value="pass genes to process worker que/wrapper" style="whiteSpace=wrap;html=1;rounded=1;" parent="1" vertex="1">
          <mxGeometry x="620" y="1130" width="120" height="60" as="geometry" />
        </mxCell>
        <mxCell id="YBbd6qHGsjDS6U28tkjz-185" value="" style="edgeStyle=orthogonalEdgeStyle;rounded=0;orthogonalLoop=1;jettySize=auto;html=1;" parent="1" source="YBbd6qHGsjDS6U28tkjz-182" target="YBbd6qHGsjDS6U28tkjz-184" edge="1">
          <mxGeometry relative="1" as="geometry" />
        </mxCell>
        <mxCell id="YBbd6qHGsjDS6U28tkjz-182" value="proces_pool_worker&lt;br&gt;wrapper function" style="whiteSpace=wrap;html=1;rounded=1;" parent="1" vertex="1">
          <mxGeometry x="620" y="1270" width="120" height="60" as="geometry" />
        </mxCell>
        <mxCell id="YBbd6qHGsjDS6U28tkjz-184" value="EXERIMENT&lt;br&gt;WORKFLOW" style="whiteSpace=wrap;html=1;rounded=1;" parent="1" vertex="1">
          <mxGeometry x="620" y="1410" width="120" height="60" as="geometry" />
        </mxCell>
        <mxCell id="6sdkXRkWTDobi1n3qOID-3" style="edgeStyle=orthogonalEdgeStyle;rounded=0;orthogonalLoop=1;jettySize=auto;html=1;exitX=0.5;exitY=1;exitDx=0;exitDy=0;entryX=0.5;entryY=0;entryDx=0;entryDy=0;" parent="1" source="6sdkXRkWTDobi1n3qOID-1" target="YBbd6qHGsjDS6U28tkjz-154" edge="1">
          <mxGeometry relative="1" as="geometry" />
        </mxCell>
        <mxCell id="6sdkXRkWTDobi1n3qOID-1" value="Init_experiment()" style="whiteSpace=wrap;html=1;rounded=1;" parent="1" vertex="1">
          <mxGeometry x="2253" y="912" width="120" height="60" as="geometry" />
        </mxCell>
        <mxCell id="6sdkXRkWTDobi1n3qOID-4" value="Init experiment will need to read all its own experiment configurations from its own config file.&lt;br&gt;This way the experiment can be treated independently from the Controller config." style="text;html=1;align=center;verticalAlign=middle;resizable=0;points=[];autosize=1;strokeColor=none;fillColor=none;" parent="1" vertex="1">
          <mxGeometry x="2090" y="983" width="520" height="40" as="geometry" />
        </mxCell>
        <mxCell id="6sdkXRkWTDobi1n3qOID-9" value="Contrpoller call_gene_modification" style="whiteSpace=wrap;html=1;rounded=1;" parent="1" vertex="1">
          <mxGeometry x="2253" y="1392" width="120" height="60" as="geometry" />
        </mxCell>
        <mxCell id="6sdkXRkWTDobi1n3qOID-11" value="This could be a module/interface in which the fitness function can advise the controller to&amp;nbsp;&lt;br&gt;Apply specific genetic operators, like the gene string extending operator&lt;br&gt;Recombine new populations&lt;br&gt;build entire new populations&lt;br&gt;sort out some populations.&lt;br&gt;Basically a function which can be called with differient params to achieve the above behaviour&lt;br&gt;Or maybe more a set of functions in the controller class that can be called if needed here from the experiment." style="text;html=1;align=center;verticalAlign=middle;resizable=0;points=[];autosize=1;strokeColor=none;fillColor=none;" parent="1" vertex="1">
          <mxGeometry x="2010" y="1260" width="610" height="110" as="geometry" />
        </mxCell>
        <mxCell id="6sdkXRkWTDobi1n3qOID-18" style="edgeStyle=orthogonalEdgeStyle;rounded=0;orthogonalLoop=1;jettySize=auto;html=1;exitX=0.5;exitY=0;exitDx=0;exitDy=0;entryX=0.5;entryY=1;entryDx=0;entryDy=0;entryPerimeter=0;" parent="1" source="6sdkXRkWTDobi1n3qOID-16" target="YBbd6qHGsjDS6U28tkjz-173" edge="1">
          <mxGeometry relative="1" as="geometry" />
        </mxCell>
        <mxCell id="6sdkXRkWTDobi1n3qOID-16" value="instantiate&lt;br&gt;individuals of new pops" style="whiteSpace=wrap;html=1;rounded=1;" parent="1" vertex="1">
          <mxGeometry x="850" y="1414" width="120" height="60" as="geometry" />
        </mxCell>
        <mxCell id="6sdkXRkWTDobi1n3qOID-19" value="This is necessary to ensure that the&lt;br&gt;population and the individuals got&lt;br&gt;fitness values" style="text;html=1;align=center;verticalAlign=middle;resizable=0;points=[];autosize=1;strokeColor=none;fillColor=none;" parent="1" vertex="1">
          <mxGeometry x="812" y="1340" width="210" height="60" as="geometry" />
        </mxCell>
        <mxCell id="6sdkXRkWTDobi1n3qOID-29" style="edgeStyle=orthogonalEdgeStyle;rounded=0;orthogonalLoop=1;jettySize=auto;html=1;exitX=1;exitY=0.5;exitDx=0;exitDy=0;entryX=1;entryY=0.5;entryDx=0;entryDy=0;entryPerimeter=0;" parent="1" source="6sdkXRkWTDobi1n3qOID-21" target="YBbd6qHGsjDS6U28tkjz-33" edge="1">
          <mxGeometry relative="1" as="geometry">
            <Array as="points">
              <mxPoint x="1870" y="1650" />
              <mxPoint x="1870" y="670" />
            </Array>
          </mxGeometry>
        </mxCell>
        <mxCell id="6sdkXRkWTDobi1n3qOID-21" value="print or log information about epoch" style="rounded=1;whiteSpace=wrap;html=1;" parent="1" vertex="1">
          <mxGeometry x="1540" y="1620" width="120" height="60" as="geometry" />
        </mxCell>
        <mxCell id="6sdkXRkWTDobi1n3qOID-26" style="edgeStyle=orthogonalEdgeStyle;rounded=0;orthogonalLoop=1;jettySize=auto;html=1;exitX=0.5;exitY=1;exitDx=0;exitDy=0;entryX=0.5;entryY=0;entryDx=0;entryDy=0;entryPerimeter=0;" parent="1" source="6sdkXRkWTDobi1n3qOID-22" target="YBbd6qHGsjDS6U28tkjz-74" edge="1">
          <mxGeometry relative="1" as="geometry" />
        </mxCell>
        <mxCell id="6sdkXRkWTDobi1n3qOID-22" value="check if the algorithm stagnates (no diversity)" style="rounded=1;whiteSpace=wrap;html=1;" parent="1" vertex="1">
          <mxGeometry x="1540" y="1148" width="120" height="60" as="geometry" />
        </mxCell>
        <mxCell id="6sdkXRkWTDobi1n3qOID-30" value="World&lt;br&gt;experiment&lt;br&gt;controller&lt;br&gt;populations&lt;br&gt;individuals&lt;br&gt;operators" style="text;html=1;align=center;verticalAlign=middle;resizable=0;points=[];autosize=1;strokeColor=none;fillColor=none;" parent="1" vertex="1">
          <mxGeometry x="2880" y="1223" width="80" height="100" as="geometry" />
        </mxCell>
        <mxCell id="6sdkXRkWTDobi1n3qOID-31" value="controller.pops_stagnation_check()&lt;br&gt;make all of these functions to have a better code overview" style="text;html=1;align=center;verticalAlign=middle;resizable=0;points=[];autosize=1;strokeColor=none;fillColor=none;" parent="1" vertex="1">
          <mxGeometry x="1545" y="1080" width="330" height="40" as="geometry" />
        </mxCell>
        <mxCell id="6sdkXRkWTDobi1n3qOID-32" value="On all populations set the epoch counder one up&lt;br&gt;so again you would pack this here into functions.&lt;br&gt;Like _populatios.mutat()&lt;br&gt;_populations_instantiate()&lt;br&gt;_populations_apply_operatos()" style="text;html=1;align=center;verticalAlign=middle;resizable=0;points=[];autosize=1;strokeColor=none;fillColor=none;" parent="1" vertex="1">
          <mxGeometry x="1193" y="700" width="280" height="90" as="geometry" />
        </mxCell>
        <mxCell id="2305VUciKoEtOX_F4iJQ-1" value="Operator_interface" style="swimlane;fontStyle=1;align=center;verticalAlign=top;childLayout=stackLayout;horizontal=1;startSize=26;horizontalStack=0;resizeParent=1;resizeParentMax=0;resizeLast=0;collapsible=1;marginBottom=0;whiteSpace=wrap;html=1;" parent="1" vertex="1">
          <mxGeometry x="-297" y="480" width="230" height="86" as="geometry" />
        </mxCell>
        <mxCell id="2305VUciKoEtOX_F4iJQ-2" value="+ name: string" style="text;strokeColor=none;fillColor=none;align=left;verticalAlign=top;spacingLeft=4;spacingRight=4;overflow=hidden;rotatable=0;points=[[0,0.5],[1,0.5]];portConstraint=eastwest;whiteSpace=wrap;html=1;" parent="2305VUciKoEtOX_F4iJQ-1" vertex="1">
          <mxGeometry y="26" width="230" height="26" as="geometry" />
        </mxCell>
        <mxCell id="2305VUciKoEtOX_F4iJQ-3" value="" style="line;strokeWidth=1;fillColor=none;align=left;verticalAlign=middle;spacingTop=-1;spacingLeft=3;spacingRight=3;rotatable=0;labelPosition=right;points=[];portConstraint=eastwest;strokeColor=inherit;" parent="2305VUciKoEtOX_F4iJQ-1" vertex="1">
          <mxGeometry y="52" width="230" height="8" as="geometry" />
        </mxCell>
        <mxCell id="2305VUciKoEtOX_F4iJQ-4" value="+ apply_operator(gene_0, gene_1)" style="text;strokeColor=none;fillColor=none;align=left;verticalAlign=top;spacingLeft=4;spacingRight=4;overflow=hidden;rotatable=0;points=[[0,0.5],[1,0.5]];portConstraint=eastwest;whiteSpace=wrap;html=1;" parent="2305VUciKoEtOX_F4iJQ-1" vertex="1">
          <mxGeometry y="60" width="230" height="26" as="geometry" />
        </mxCell>
        <mxCell id="2305VUciKoEtOX_F4iJQ-6" value="Thies will be an interface to the operators used to produce offsprings&lt;br&gt;" style="text;html=1;align=center;verticalAlign=middle;resizable=0;points=[];autosize=1;strokeColor=none;fillColor=none;" parent="1" vertex="1">
          <mxGeometry x="-390" y="435" width="390" height="30" as="geometry" />
        </mxCell>
        <mxCell id="ju8TFpcfmoSFrrAgH8_M-1" value="Gene_modification_interface" style="swimlane;fontStyle=1;align=center;verticalAlign=top;childLayout=stackLayout;horizontal=1;startSize=26;horizontalStack=0;resizeParent=1;resizeParentMax=0;resizeLast=0;collapsible=1;marginBottom=0;whiteSpace=wrap;html=1;" parent="1" vertex="1">
          <mxGeometry x="130" y="460" width="230" height="86" as="geometry" />
        </mxCell>
        <mxCell id="ju8TFpcfmoSFrrAgH8_M-2" value="+ name: string" style="text;strokeColor=none;fillColor=none;align=left;verticalAlign=top;spacingLeft=4;spacingRight=4;overflow=hidden;rotatable=0;points=[[0,0.5],[1,0.5]];portConstraint=eastwest;whiteSpace=wrap;html=1;" parent="ju8TFpcfmoSFrrAgH8_M-1" vertex="1">
          <mxGeometry y="26" width="230" height="26" as="geometry" />
        </mxCell>
        <mxCell id="ju8TFpcfmoSFrrAgH8_M-3" value="" style="line;strokeWidth=1;fillColor=none;align=left;verticalAlign=middle;spacingTop=-1;spacingLeft=3;spacingRight=3;rotatable=0;labelPosition=right;points=[];portConstraint=eastwest;strokeColor=inherit;" parent="ju8TFpcfmoSFrrAgH8_M-1" vertex="1">
          <mxGeometry y="52" width="230" height="8" as="geometry" />
        </mxCell>
        <mxCell id="ju8TFpcfmoSFrrAgH8_M-5" value="+ apply_modification(gene_0)" style="text;strokeColor=none;fillColor=none;align=left;verticalAlign=top;spacingLeft=4;spacingRight=4;overflow=hidden;rotatable=0;points=[[0,0.5],[1,0.5]];portConstraint=eastwest;whiteSpace=wrap;html=1;" parent="ju8TFpcfmoSFrrAgH8_M-1" vertex="1">
          <mxGeometry y="60" width="230" height="26" as="geometry" />
        </mxCell>
        <mxCell id="ju8TFpcfmoSFrrAgH8_M-6" value="Unlike an operator here it is clear that no new offrprings will be generated&lt;br&gt;Here an inplace modification takes place like extending the gene string&amp;nbsp;&lt;br&gt;or do something else with it" style="text;html=1;align=center;verticalAlign=middle;resizable=0;points=[];autosize=1;strokeColor=none;fillColor=none;" parent="1" vertex="1">
          <mxGeometry x="15" y="395" width="410" height="60" as="geometry" />
        </mxCell>
        <mxCell id="HAsKsfTJxQwT5OBsK-yM-1" value="population.mutate()" style="whiteSpace=wrap;html=1;rounded=1;" vertex="1" parent="1">
          <mxGeometry x="3438" y="977" width="120" height="60" as="geometry" />
        </mxCell>
        <mxCell id="HAsKsfTJxQwT5OBsK-yM-2" value="call mutate on all the populations" style="text;html=1;align=center;verticalAlign=middle;resizable=0;points=[];autosize=1;strokeColor=none;fillColor=none;" vertex="1" parent="1">
          <mxGeometry x="3397" y="936" width="200" height="30" as="geometry" />
        </mxCell>
        <mxCell id="HAsKsfTJxQwT5OBsK-yM-3" value="population.recombine(&lt;br&gt;operator(g_0,g_1))" style="whiteSpace=wrap;html=1;rounded=1;" vertex="1" parent="1">
          <mxGeometry x="3438" y="1287" width="120" height="60" as="geometry" />
        </mxCell>
        <mxCell id="HAsKsfTJxQwT5OBsK-yM-4" value="population.instantiiate_&lt;br&gt;individuals(mpi=true)" style="whiteSpace=wrap;html=1;rounded=1;" vertex="1" parent="1">
          <mxGeometry x="3438" y="1129" width="120" height="60" as="geometry" />
        </mxCell>
        <mxCell id="HAsKsfTJxQwT5OBsK-yM-5" value="On all populations set the epoch counder one up&lt;br&gt;so again you would pack this here into functions.&lt;br&gt;Like _populatios.mutat()&lt;br&gt;_populations_instantiate()&lt;br&gt;_populations_apply_operatos()" style="text;html=1;align=center;verticalAlign=middle;resizable=0;points=[];autosize=1;strokeColor=none;fillColor=none;" vertex="1" parent="1">
          <mxGeometry x="3350" y="839" width="280" height="90" as="geometry" />
        </mxCell>
      </root>
    </mxGraphModel>
  </diagram>
</mxfile>
