<mxfile host="Electron" modified="2023-07-04T14:30:41.800Z" agent="Mozilla/5.0 (X11; Linux x86_64) AppleWebKit/537.36 (KHTML, like Gecko) draw.io/21.2.8 Chrome/112.0.5615.165 Electron/24.2.0 Safari/537.36" etag="A4Cifa2M0oYHXV9wZ0hg" version="21.2.8" type="device">
  <diagram name="Page-1" id="d9ukyp2v95sI_arlxVt0">
    <mxGraphModel dx="2537" dy="995" grid="1" gridSize="10" guides="1" tooltips="1" connect="1" arrows="1" fold="1" page="1" pageScale="1" pageWidth="850" pageHeight="1100" math="0" shadow="0">
      <root>
        <mxCell id="0" />
        <mxCell id="1" parent="0" />
        <mxCell id="ehnrpR-e_t0s3ppQeY-d-56" value="" style="rounded=1;whiteSpace=wrap;html=1;fillColor=none;strokeColor=#2F5B7C;strokeWidth=3;" vertex="1" parent="1">
          <mxGeometry x="-720" y="105" width="410" height="435" as="geometry" />
        </mxCell>
        <mxCell id="ehnrpR-e_t0s3ppQeY-d-1" value="&lt;b&gt;Controller&lt;/b&gt;" style="rounded=1;whiteSpace=wrap;html=1;strokeColor=none;fillColor=#2F5B7C;fontColor=#ffffff;" vertex="1" parent="1">
          <mxGeometry x="10" y="290" width="120" height="60" as="geometry" />
        </mxCell>
        <mxCell id="ehnrpR-e_t0s3ppQeY-d-2" value="&lt;b&gt;config&lt;/b&gt;" style="rounded=1;whiteSpace=wrap;html=1;fillColor=#008a00;fontColor=#ffffff;strokeColor=#005700;" vertex="1" parent="1">
          <mxGeometry x="280" y="290" width="120" height="60" as="geometry" />
        </mxCell>
        <mxCell id="ehnrpR-e_t0s3ppQeY-d-3" value="&lt;b&gt;evolutionary_phase&lt;/b&gt;" style="rounded=1;whiteSpace=wrap;html=1;fillColor=#008a00;fontColor=#ffffff;strokeColor=#005700;" vertex="1" parent="1">
          <mxGeometry x="510" y="160" width="120" height="60" as="geometry" />
        </mxCell>
        <mxCell id="ehnrpR-e_t0s3ppQeY-d-4" value="&lt;b&gt;experiment&lt;/b&gt;" style="rounded=1;whiteSpace=wrap;html=1;fillColor=#008a00;fontColor=#ffffff;strokeColor=#005700;" vertex="1" parent="1">
          <mxGeometry x="510" y="290" width="120" height="60" as="geometry" />
        </mxCell>
        <mxCell id="ehnrpR-e_t0s3ppQeY-d-5" value="&lt;b&gt;genetic_operators&lt;/b&gt;" style="rounded=1;whiteSpace=wrap;html=1;fillColor=#008a00;fontColor=#ffffff;strokeColor=#005700;" vertex="1" parent="1">
          <mxGeometry x="510" y="420" width="120" height="60" as="geometry" />
        </mxCell>
        <mxCell id="ehnrpR-e_t0s3ppQeY-d-6" value="&lt;b&gt;individual&lt;/b&gt;" style="rounded=1;whiteSpace=wrap;html=1;strokeColor=none;fillColor=#2F5B7C;fontColor=#ffffff;" vertex="1" parent="1">
          <mxGeometry x="-300" y="206" width="120" height="60" as="geometry" />
        </mxCell>
        <mxCell id="ehnrpR-e_t0s3ppQeY-d-7" value="&lt;b&gt;population&lt;/b&gt;" style="rounded=1;whiteSpace=wrap;html=1;fillColor=#2F5B7C;fontColor=#ffffff;strokeColor=none;" vertex="1" parent="1">
          <mxGeometry x="-300" y="105" width="120" height="60" as="geometry" />
        </mxCell>
        <mxCell id="ehnrpR-e_t0s3ppQeY-d-10" value="" style="edgeStyle=none;rounded=0;jumpStyle=none;html=1;shadow=0;labelBackgroundColor=none;startArrow=none;startFill=0;endArrow=classic;endFill=1;jettySize=auto;orthogonalLoop=1;strokeColor=#2F5B7C;strokeWidth=3;fontFamily=Helvetica;fontSize=16;fontColor=#23445D;spacing=5;exitX=0;exitY=0;exitDx=0;exitDy=0;entryX=1;entryY=0.5;entryDx=0;entryDy=0;" edge="1" parent="1" source="ehnrpR-e_t0s3ppQeY-d-1" target="ehnrpR-e_t0s3ppQeY-d-6">
          <mxGeometry relative="1" as="geometry">
            <mxPoint x="-24" y="319.40999999999997" as="sourcePoint" />
            <mxPoint x="-150" y="319.40999999999997" as="targetPoint" />
          </mxGeometry>
        </mxCell>
        <mxCell id="ehnrpR-e_t0s3ppQeY-d-12" value="" style="edgeStyle=none;rounded=0;jumpStyle=none;html=1;shadow=0;labelBackgroundColor=none;startArrow=none;startFill=0;endArrow=classic;endFill=1;jettySize=auto;orthogonalLoop=1;strokeColor=#2F5B7C;strokeWidth=3;fontFamily=Helvetica;fontSize=16;fontColor=#23445D;spacing=5;exitX=0.25;exitY=0;exitDx=0;exitDy=0;entryX=1;entryY=0.5;entryDx=0;entryDy=0;" edge="1" parent="1" source="ehnrpR-e_t0s3ppQeY-d-1" target="ehnrpR-e_t0s3ppQeY-d-7">
          <mxGeometry relative="1" as="geometry">
            <mxPoint x="-24" y="179.41" as="sourcePoint" />
            <mxPoint x="-150" y="179" as="targetPoint" />
          </mxGeometry>
        </mxCell>
        <mxCell id="ehnrpR-e_t0s3ppQeY-d-15" value="" style="edgeStyle=none;rounded=1;jumpStyle=none;html=1;shadow=0;labelBackgroundColor=none;startArrow=none;startFill=0;jettySize=auto;orthogonalLoop=1;strokeColor=#005700;strokeWidth=3;fontFamily=Helvetica;fontSize=14;fontColor=#FFFFFF;spacing=5;fontStyle=1;fillColor=#008a00;exitX=0;exitY=0.5;exitDx=0;exitDy=0;entryX=0.75;entryY=1;entryDx=0;entryDy=0;" edge="1" parent="1" source="ehnrpR-e_t0s3ppQeY-d-5" target="ehnrpR-e_t0s3ppQeY-d-2">
          <mxGeometry relative="1" as="geometry">
            <mxPoint x="390" y="412.5" as="sourcePoint" />
            <mxPoint x="480" y="470" as="targetPoint" />
          </mxGeometry>
        </mxCell>
        <mxCell id="ehnrpR-e_t0s3ppQeY-d-16" value="" style="edgeStyle=none;rounded=1;jumpStyle=none;html=1;shadow=0;labelBackgroundColor=none;startArrow=none;startFill=0;jettySize=auto;orthogonalLoop=1;strokeColor=#005700;strokeWidth=3;fontFamily=Helvetica;fontSize=14;fontColor=#FFFFFF;spacing=5;fontStyle=1;fillColor=#008a00;exitX=0;exitY=0.5;exitDx=0;exitDy=0;entryX=1;entryY=0.5;entryDx=0;entryDy=0;" edge="1" parent="1" source="ehnrpR-e_t0s3ppQeY-d-4" target="ehnrpR-e_t0s3ppQeY-d-2">
          <mxGeometry relative="1" as="geometry">
            <mxPoint x="898" y="448" as="sourcePoint" />
            <mxPoint x="500" y="240" as="targetPoint" />
          </mxGeometry>
        </mxCell>
        <mxCell id="ehnrpR-e_t0s3ppQeY-d-17" value="" style="edgeStyle=none;rounded=1;jumpStyle=none;html=1;shadow=0;labelBackgroundColor=none;startArrow=none;startFill=0;jettySize=auto;orthogonalLoop=1;strokeColor=#005700;strokeWidth=3;fontFamily=Helvetica;fontSize=14;fontColor=#FFFFFF;spacing=5;fontStyle=1;fillColor=#008a00;exitX=0;exitY=0.5;exitDx=0;exitDy=0;entryX=0.75;entryY=0;entryDx=0;entryDy=0;" edge="1" parent="1" source="ehnrpR-e_t0s3ppQeY-d-3" target="ehnrpR-e_t0s3ppQeY-d-2">
          <mxGeometry relative="1" as="geometry">
            <mxPoint x="908" y="458" as="sourcePoint" />
            <mxPoint x="320" y="200" as="targetPoint" />
          </mxGeometry>
        </mxCell>
        <mxCell id="ehnrpR-e_t0s3ppQeY-d-18" value="&lt;b&gt;MPI_tags&lt;/b&gt;" style="rounded=1;whiteSpace=wrap;html=1;fillColor=#2F5B7C;fontColor=#ffffff;strokeColor=none;" vertex="1" parent="1">
          <mxGeometry x="-300" y="480" width="120" height="60" as="geometry" />
        </mxCell>
        <mxCell id="ehnrpR-e_t0s3ppQeY-d-19" value="" style="edgeStyle=none;rounded=0;jumpStyle=none;html=1;shadow=0;labelBackgroundColor=none;startArrow=none;startFill=0;endArrow=classic;endFill=1;jettySize=auto;orthogonalLoop=1;strokeColor=#2F5B7C;strokeWidth=3;fontFamily=Helvetica;fontSize=16;fontColor=#23445D;spacing=5;exitX=0.25;exitY=1;exitDx=0;exitDy=0;entryX=1;entryY=0.5;entryDx=0;entryDy=0;" edge="1" parent="1" source="ehnrpR-e_t0s3ppQeY-d-1" target="ehnrpR-e_t0s3ppQeY-d-18">
          <mxGeometry relative="1" as="geometry">
            <mxPoint x="20" y="330" as="sourcePoint" />
            <mxPoint x="-170" y="320" as="targetPoint" />
          </mxGeometry>
        </mxCell>
        <mxCell id="ehnrpR-e_t0s3ppQeY-d-20" value="" style="edgeStyle=none;rounded=1;jumpStyle=none;html=1;shadow=0;labelBackgroundColor=none;startArrow=none;startFill=0;jettySize=auto;orthogonalLoop=1;strokeColor=#005700;strokeWidth=3;fontFamily=Helvetica;fontSize=14;fontColor=#FFFFFF;spacing=5;fontStyle=1;fillColor=#008a00;exitX=0;exitY=0.5;exitDx=0;exitDy=0;entryX=1;entryY=0.5;entryDx=0;entryDy=0;enumerate=0;" edge="1" parent="1" source="ehnrpR-e_t0s3ppQeY-d-2" target="ehnrpR-e_t0s3ppQeY-d-1">
          <mxGeometry relative="1" as="geometry">
            <mxPoint x="300" y="470" as="sourcePoint" />
            <mxPoint x="160" y="370" as="targetPoint" />
          </mxGeometry>
        </mxCell>
        <mxCell id="ehnrpR-e_t0s3ppQeY-d-27" value="" style="image;aspect=fixed;html=1;points=[];align=center;fontSize=12;image=img/lib/azure2/identity/Users.svg;" vertex="1" parent="1">
          <mxGeometry x="317.14" y="459" width="45.71" height="50" as="geometry" />
        </mxCell>
        <mxCell id="ehnrpR-e_t0s3ppQeY-d-40" value="Configuration&lt;br&gt;Objects" style="text;html=1;align=left;verticalAlign=middle;resizable=0;points=[];autosize=1;strokeColor=none;fillColor=none;" vertex="1" parent="1">
          <mxGeometry x="170" y="281" width="90" height="40" as="geometry" />
        </mxCell>
        <mxCell id="ehnrpR-e_t0s3ppQeY-d-41" value="Apply_operator_stacks" style="text;html=1;align=center;verticalAlign=middle;resizable=0;points=[];autosize=1;strokeColor=none;fillColor=none;rotation=45;" vertex="1" parent="1">
          <mxGeometry x="-690" y="272" width="150" height="30" as="geometry" />
        </mxCell>
        <mxCell id="ehnrpR-e_t0s3ppQeY-d-42" value="Conduct phase specific experiment" style="text;html=1;align=center;verticalAlign=middle;resizable=0;points=[];autosize=1;strokeColor=none;fillColor=none;" vertex="1" parent="1">
          <mxGeometry x="-685" y="331" width="210" height="30" as="geometry" />
        </mxCell>
        <mxCell id="ehnrpR-e_t0s3ppQeY-d-43" value="Stagnation check" style="text;html=1;align=center;verticalAlign=middle;resizable=0;points=[];autosize=1;strokeColor=none;fillColor=none;rotation=15;" vertex="1" parent="1">
          <mxGeometry x="-655" y="371" width="120" height="30" as="geometry" />
        </mxCell>
        <mxCell id="ehnrpR-e_t0s3ppQeY-d-44" value="Create new populations (Island Fusion)" style="text;html=1;align=center;verticalAlign=middle;resizable=0;points=[];autosize=1;strokeColor=none;fillColor=none;rotation=-15;" vertex="1" parent="1">
          <mxGeometry x="-575" y="341" width="230" height="30" as="geometry" />
        </mxCell>
        <mxCell id="ehnrpR-e_t0s3ppQeY-d-45" value="Start new phase" style="text;html=1;align=center;verticalAlign=middle;resizable=0;points=[];autosize=1;strokeColor=none;fillColor=none;rotation=-90;" vertex="1" parent="1">
          <mxGeometry x="-535" y="272" width="110" height="30" as="geometry" />
        </mxCell>
        <mxCell id="ehnrpR-e_t0s3ppQeY-d-46" value="Check if phase is finished" style="text;html=1;align=center;verticalAlign=middle;resizable=0;points=[];autosize=1;strokeColor=none;fillColor=none;" vertex="1" parent="1">
          <mxGeometry x="-630" y="421" width="160" height="30" as="geometry" />
        </mxCell>
        <mxCell id="ehnrpR-e_t0s3ppQeY-d-47" value="Sort individuals based on their fitness" style="text;html=1;align=center;verticalAlign=middle;resizable=0;points=[];autosize=1;strokeColor=none;fillColor=none;rotation=-45;" vertex="1" parent="1">
          <mxGeometry x="-500" y="241" width="220" height="30" as="geometry" />
        </mxCell>
        <mxCell id="ehnrpR-e_t0s3ppQeY-d-48" value="Determine&amp;nbsp; if to use MPI. MPI Futures, Python Futures, none at all" style="text;html=1;align=center;verticalAlign=middle;resizable=0;points=[];autosize=1;strokeColor=none;fillColor=none;rotation=-15;" vertex="1" parent="1">
          <mxGeometry x="-675" y="451" width="370" height="30" as="geometry" />
        </mxCell>
        <mxCell id="ehnrpR-e_t0s3ppQeY-d-49" value="Pass work to MPI workers" style="text;html=1;align=center;verticalAlign=middle;resizable=0;points=[];autosize=1;strokeColor=none;fillColor=none;rotation=45;" vertex="1" parent="1">
          <mxGeometry x="-730" y="411" width="160" height="30" as="geometry" />
        </mxCell>
        <mxCell id="ehnrpR-e_t0s3ppQeY-d-50" value="Apply phase start operators" style="text;html=1;align=center;verticalAlign=middle;resizable=0;points=[];autosize=1;strokeColor=none;fillColor=none;rotation=-30;" vertex="1" parent="1">
          <mxGeometry x="-475" y="371" width="170" height="30" as="geometry" />
        </mxCell>
        <mxCell id="ehnrpR-e_t0s3ppQeY-d-51" value="Initialize populations" style="text;html=1;align=center;verticalAlign=middle;resizable=0;points=[];autosize=1;strokeColor=none;fillColor=none;rotation=-15;" vertex="1" parent="1">
          <mxGeometry x="-580" y="131" width="130" height="30" as="geometry" />
        </mxCell>
        <mxCell id="ehnrpR-e_t0s3ppQeY-d-52" value="Instantiate individuals" style="text;html=1;align=center;verticalAlign=middle;resizable=0;points=[];autosize=1;strokeColor=none;fillColor=none;rotation=30;" vertex="1" parent="1">
          <mxGeometry x="-460" y="131" width="140" height="30" as="geometry" />
        </mxCell>
        <mxCell id="ehnrpR-e_t0s3ppQeY-d-53" value="Return the fittest n individuals" style="text;html=1;align=center;verticalAlign=middle;resizable=0;points=[];autosize=1;strokeColor=none;fillColor=none;rotation=-10;" vertex="1" parent="1">
          <mxGeometry x="-570" y="161" width="180" height="30" as="geometry" />
        </mxCell>
        <mxCell id="ehnrpR-e_t0s3ppQeY-d-54" value="Population mean/max fitness values" style="text;html=1;align=center;verticalAlign=middle;resizable=0;points=[];autosize=1;strokeColor=none;fillColor=none;rotation=15;" vertex="1" parent="1">
          <mxGeometry x="-705" y="221" width="220" height="30" as="geometry" />
        </mxCell>
        <mxCell id="ehnrpR-e_t0s3ppQeY-d-58" value="" style="edgeStyle=none;rounded=0;jumpStyle=none;html=1;shadow=0;labelBackgroundColor=none;startArrow=none;startFill=0;endArrow=classic;endFill=1;jettySize=auto;orthogonalLoop=1;strokeColor=#2F5B7C;strokeWidth=3;fontFamily=Helvetica;fontSize=16;fontColor=#23445D;spacing=5;exitX=0;exitY=0.5;exitDx=0;exitDy=0;entryX=1;entryY=0.5;entryDx=0;entryDy=0;" edge="1" parent="1" source="ehnrpR-e_t0s3ppQeY-d-1" target="ehnrpR-e_t0s3ppQeY-d-56">
          <mxGeometry relative="1" as="geometry">
            <mxPoint x="-60" y="370" as="sourcePoint" />
            <mxPoint x="-310" y="325" as="targetPoint" />
          </mxGeometry>
        </mxCell>
        <mxCell id="ehnrpR-e_t0s3ppQeY-d-59" value="&lt;b&gt;MPI_worker&lt;/b&gt;" style="rounded=1;whiteSpace=wrap;html=1;fillColor=#2F5B7C;fontColor=#ffffff;strokeColor=none;" vertex="1" parent="1">
          <mxGeometry x="-300" y="371" width="120" height="60" as="geometry" />
        </mxCell>
        <mxCell id="ehnrpR-e_t0s3ppQeY-d-60" value="" style="edgeStyle=none;rounded=0;jumpStyle=none;html=1;shadow=0;labelBackgroundColor=none;startArrow=none;startFill=0;endArrow=classic;endFill=1;jettySize=auto;orthogonalLoop=1;strokeColor=#2F5B7C;strokeWidth=3;fontFamily=Helvetica;fontSize=16;fontColor=#23445D;spacing=5;exitX=0;exitY=1;exitDx=0;exitDy=0;entryX=1;entryY=0.5;entryDx=0;entryDy=0;" edge="1" parent="1" source="ehnrpR-e_t0s3ppQeY-d-1" target="ehnrpR-e_t0s3ppQeY-d-59">
          <mxGeometry relative="1" as="geometry">
            <mxPoint x="50" y="360" as="sourcePoint" />
            <mxPoint x="-170" y="490" as="targetPoint" />
          </mxGeometry>
        </mxCell>
        <mxCell id="ehnrpR-e_t0s3ppQeY-d-61" value="" style="endArrow=none;html=1;rounded=0;strokeWidth=3;strokeColor=#2F5B7C;" edge="1" parent="1">
          <mxGeometry width="50" height="50" relative="1" as="geometry">
            <mxPoint x="-720" y="559" as="sourcePoint" />
            <mxPoint x="130" y="559" as="targetPoint" />
          </mxGeometry>
        </mxCell>
        <mxCell id="ehnrpR-e_t0s3ppQeY-d-62" value="" style="endArrow=none;html=1;rounded=0;strokeWidth=3;fillColor=#008a00;strokeColor=#005700;" edge="1" parent="1">
          <mxGeometry width="50" height="50" relative="1" as="geometry">
            <mxPoint x="280" y="559" as="sourcePoint" />
            <mxPoint x="640" y="559" as="targetPoint" />
          </mxGeometry>
        </mxCell>
        <mxCell id="ehnrpR-e_t0s3ppQeY-d-63" value="Components" style="text;html=1;align=center;verticalAlign=middle;resizable=0;points=[];autosize=1;fillColor=none;fontStyle=1;fontSize=18;" vertex="1" parent="1">
          <mxGeometry x="280" y="509" width="130" height="40" as="geometry" />
        </mxCell>
        <mxCell id="ehnrpR-e_t0s3ppQeY-d-64" value="Core" style="text;html=1;align=center;verticalAlign=middle;resizable=0;points=[];autosize=1;fillColor=none;fontStyle=1;fontSize=18;" vertex="1" parent="1">
          <mxGeometry x="70" y="509" width="60" height="40" as="geometry" />
        </mxCell>
      </root>
    </mxGraphModel>
  </diagram>
</mxfile>
